^C:\USERS\FRANCIS\DESKTOP\ENSC 351\ASSIGNMENTS\ASSIGNMENT3\LAB3\LAB3\X64\DEBUG\MAIN.OBJ|C:\USERS\FRANCIS\DESKTOP\ENSC 351\ASSIGNMENTS\ASSIGNMENT3\LAB3\LAB3\X64\DEBUG\MAPREDUCE.OBJ
C:\USERS\FRANCIS\DESKTOP\ENSC 351\ASSIGNMENTS\ASSIGNMENT3\LAB3\X64\DEBUG\LAB3.ILK
C:\USERS\FRANCIS\DESKTOP\ENSC 351\ASSIGNMENTS\ASSIGNMENT3\LAB3\X64\DEBUG\LAB3.EXE
C:\USERS\FRANCIS\DESKTOP\ENSC 351\ASSIGNMENTS\ASSIGNMENT3\LAB3\X64\DEBUG\LAB3.PDB
